{
   "origin": {
      "id": 2295,
      "name": "CINTIA-UNIVERSITA'",
      "lat":40.83985,
      "lng":14.18760
   }
   ,
   "destination": {
      "id": 666,
      "name": "VIA ELDORADO-CASTEL DELL'OVO",
      "lat":40.82876,
      "lng":14.24766
   }
   ,
   "path": 	{
      "routes":[
      [
      {
         "id": "R6",
         "type": "bus",
         "co2": 23,
         "startTime": "2012-05-22T20:13:12+00:00",
         "endTime": "2012-05-22T20:33:12+00:00",
         "coords":[
         {
            "id": 2761,
            "name": "CINTIA-PARCO SAN PAOLO",
            "lat": 40.83732,
            "lng": 14.18925
         },

         {
            "id": 2135,
            "name": "CINTIA-TANGENZIALE",
            "lat": 40.83579,
            "lng": 14.19027
         },

         {
            "id": 2136,
            "name": "CINTIA-PARCO SAN PAOLO",
            "lat": 40.83360,
            "lng": 14.19076
         },

         {
            "id": 2185,
            "name": "D'ANNUNZIO-CIMITERO",
            "lat": 40.83144,
            "lng": 14.19102
         },

         {
            "id": 2655,
            "name": "DE GENNARO-D'ANNUNZIO",
            "lat": 40.82954,
            "lng": 14.19357
         },

         {
            "id": 2299,
            "name": "MARINO-STADIO SAN PAOLO",
            "lat": 40.82605,
            "lng": 14.19417
         },

         {
            "id": 2153,
            "name": "TECCHIO-MOSTRA",
            "lat": 40.82509,
            "lng": 14.19275
         },

         {
            "id": 2466,
            "name": "TECCHIO-DIOCLEZIANO",
            "lat": 40.82340,
            "lng": 14.19279
         },

         {
            "id": 2731,
            "name": "TECCHIO-CAMPI FLEGREI",
            "lat": 40.82306,
            "lng": 14.19457
         },

         {
            "id": 2902,
            "name": "TECCHIO-CAMPI FLEGREI",
            "lat": 40.82301,
            "lng": 14.19409
         }
         ]
      }
      ,
      {
         "id": "R2",
         "type": "bus",
         "co2": 80,
         "startTime": "2012-05-22T20:45:12+00:00",
         "endTime": "2012-05-22T20:59:12+00:00",
         "coords":[
         {
            "id": 2902,
            "name": "TECCHIO-CAMPI FLEGREI",
            "lat": 40.82301,
            "lng": 14.19409
         }
         ,
         {
            "id": "9999",
            "name": "DEI FIORI",
            "lat":40.82943,
            "lng":14.22137
         }
         ,
         {
            "id": "9998",
            "name": "DELLE FARFALLE",
            "lat":40.82876,
            "lng":14.24766
         }
         ]
      }
      ]
      ,
      [
      {
         "id": "R6",
         "type": "bus",
         "co2": 23,
         "startTime": "2012-05-22T20:13:12+00:00",
         "endTime": "2012-05-22T20:33:12+00:00",
         "coords":[

         {
            "id": 2761,
            "name": "CINTIA-PARCO SAN PAOLO",
            "lat": 40.83732,
            "lng": 14.18925
         },

         {
            "id": 2135,
            "name": "CINTIA-TANGENZIALE",
            "lat": 40.83579,
            "lng": 14.19027
         },

         {
            "id": 2136,
            "name": "CINTIA-PARCO SAN PAOLO",
            "lat": 40.83360,
            "lng": 14.19076
         },

         {
            "id": 2185,
            "name": "D'ANNUNZIO-CIMITERO",
            "lat": 40.83144,
            "lng": 14.19102
         },

         {
            "id": 2655,
            "name": "DE GENNARO-D'ANNUNZIO",
            "lat": 40.82954,
            "lng": 14.19357
         },

         {
            "id": 2299,
            "name": "MARINO-STADIO SAN PAOLO",
            "lat": 40.82605,
            "lng": 14.19417
         },

         {
            "id": 2153,
            "name": "TECCHIO-MOSTRA",
            "lat": 40.82509,
            "lng": 14.19275
         },

         {
            "id": 2466,
            "name": "TECCHIO-DIOCLEZIANO",
            "lat": 40.82340,
            "lng": 14.19279
         },

         {
            "id": 2731,
            "name": "TECCHIO-CAMPI FLEGREI",
            "lat": 40.82306,
            "lng": 14.19457
         },

         {
            "id": 2902,
            "name": "TECCHIO-CAMPI FLEGREI",
            "lat": 40.82301,
            "lng": 14.19409
         }
         ]
      }
      ,
      {
         "id": "6873",
         "type": "metro",
         "co2": 40,
         "startTime": "2012-05-22T34:12:12+00:00",
         "endTime": "2012-05-22T20:39:12+00:00",
         "coords":[
         {
            "id": 9573,
            "name": "CAMPI FLEGREI",
            "lat":40.82305,
            "lng":14.19371
         }
         ,
         {
            "id": 9570,
            "name": "PIAZZA AMEDEO",
            "lat":40.83827,
            "lng":14.23265
         }
         ]
      }
      ,
      {
         "id": "C21",
         "type": "bus",
         "co2": 80,
         "startTime": "2012-05-22T20:45:12+00:00",
         "endTime": "2012-05-22T21:09:12+00:00",
         "coords":[
         {
            "id": 9192,
            "name": "PIAZZA AMEDEO",
            "lat":40.83827,
            "lng":14.23265
         }
         ,
         {
            "id": 9153,
            "name": "RIVIERA DI CHIAIA",
            "lat":40.83358,
            "lng":14.23162
         }
         ,
         {
            "id": 5382,
            "name": "VIA ELDORADO-CASTEL DELL'OVO",
            "lat":40.82876,
            "lng":14.24766
         }
         ]
      }
      ]
      ,
      [
      {
         "id": "R6",
         "type": "bus",
         "co2": 40,
         "startTime": "2012-05-22T20:16:12+00:00",
         "endTime": "2012-05-22T20:39:12+00:00",
         "coords":[
         {
            "id": 2186,
            "name": "CINTIA-MONTE SANT'ANGELO",
            "lat":40.84046,
            "lng":14.18724
         }
         ,
         {
            "id": 2708,
            "name": "CINTIA-TRAIANO",
            "lat":40.848562,
            "lng":14.181515
         }
         ,
         {
            "id": 2769,
            "name": "MONTAGNA SPACCATA 209",
            "lat": 40.851272,
            "lng": 14.17848
         }
         ]
      }
      ,
      {
         "id": "C12",
         "type": "bus",
         "co2": 15,
         "startTime": "2012-05-22T20:16:12+00:00",
         "endTime": "2012-05-22T20:39:12+00:00",
         "coords":[
         {
            "id": 2769,
            "name": "MONTAGNA SPACCATA 209",
            "lat":40.851272,
            "lng":14.17848
         }
         ,
         {
            "id": 2761,
            "name": "LA TRENCIA",
            "lat":40.85119,
            "lng":14.17801
         }
         ]
      }
      ,
      {
         "id": "98476",
         "type": "metro",
         "co2": 100,
         "startTime": "2012-05-22T20:44:12+00:00",
         "endTime": "2012-05-22T20:51:12+00:00",
         "coords":[
         {
            "id": 9876,
            "name": "LA TRENCIA",
            "lat":40.85119,
            "lng":14.17801
         }
         ,
         {
            "id": 9875,
            "name": "PIAVE",
            "lat":40.84314,
            "lng":14.20638
         }
         ,
         {
            "id": 9873,
            "name": "MONTESANTO",
            "lat":40.84702,
            "lng":14.24484
         }
         ]
      }
      ,
      {
         "id": "C47",
         "type": "bus",
         "co2": 66,
         "startTime": "2012-05-22T20:54:12+00:00",
         "endTime": "2012-05-22T21:20:12+00:00",
         "coords":[
         {
            "id": 1649,
            "name": "DEL LAMPO",
            "lat":40.84702,
            "lng":14.24484
         }
         ,
         {
            "id": 1645,
            "name": "DEI PESCATORI",
            "lat": 40.84269,
            "lng": 14.25244
         }
         ,
         {
            "id": 1641,
            "name": "DEI VIANDANTI",
            "lat":40.82876,
            "lng":14.24766
         }
         ]
      }
      ]
      ]
   }
}